P20F11P11C00
C01T20C20F12
T03P33T33C30T30C10T10P12
P20T11T21P11T11P12
R31F20R20D21R21T12
C30T11R20C11R11F12
T03P01T01F31D22T20D20T31
C21D02T00C02T02P32
D02P12C20D12C12P31
D20P02D02C12D12F32
T03T00C21T00C00P12
D11F02D02P20D20F23
R11F20T01F21R20T21R21T32
T13D12F30T12F12C01
F11P20T22F20T20C30